%YAML 1.1
%TAG !u! tag:unity3d.com,2011:
--- !u!74 &7400000
AnimationClip:
  m_ObjectHideFlags: 0
  m_PrefabParentObject: {fileID: 0}
  m_PrefabInternal: {fileID: 0}
  m_Name: Hi
  serializedVersion: 6
  m_Legacy: 0
  m_Compressed: 0
  m_UseHighQualityCurve: 1
  m_RotationCurves:
  - curve:
      serializedVersion: 2
      m_Curve:
      - serializedVersion: 2
        time: 0
        value: {x: -0.5120691, y: 0.48794788, z: 0.49275115, w: 0.5068416}
        inSlope: {x: 0.03390491, y: 0.004067123, z: -0.025230644, w: 0.054711696}
        outSlope: {x: 0.03390491, y: 0.004067123, z: -0.025230644, w: 0.054711696}
        tangentMode: 0
      - serializedVersion: 2
        time: 0.23333335
        value: {x: -0.5227675, y: 0.47624564, z: 0.48910835, w: 0.51056564}
        inSlope: {x: 0.01622379, y: -0.026548507, z: 0.10287077, w: -0.057556633}
        outSlope: {x: 0.01622379, y: -0.026548507, z: 0.10287077, w: -0.057556633}
        tangentMode: 0
      - serializedVersion: 2
        time: 0.33333334
        value: {x: -0.51281685, y: 0.48775113, z: 0.49990195, w: 0.49921516}
        inSlope: {x: 0.048052672, y: 0.10862322, z: -0.019627064, w: -0.036885295}
        outSlope: {x: 0.048052672, y: 0.10862322, z: -0.019627064, w: -0.036885295}
        tangentMode: 0
      - serializedVersion: 2
        time: 0.53333336
        value: {x: -0.524196, y: 0.4821164, z: 0.48013985, w: 0.5121016}
        inSlope: {x: -0.03970292, y: -0.13843271, z: -0.02054302, w: 0.10941258}
        outSlope: {x: -0.03970292, y: -0.13843271, z: -0.02054302, w: 0.10941258}
        tangentMode: 0
      - serializedVersion: 2
        time: 0.70000005
        value: {x: -0.5120689, y: 0.48794812, z: 0.49275097, w: 0.5068417}
        inSlope: {x: 0.08055561, y: 0.060193192, z: 0.048395056, w: -0.023184996}
        outSlope: {x: 0.08055561, y: 0.060193192, z: 0.048395056, w: -0.023184996}
        tangentMode: 0
      m_PreInfinity: 2
      m_PostInfinity: 2
      m_RotationOrder: 4
    path: Bip001
  - curve:
      serializedVersion: 2
      m_Curve:
      - serializedVersion: 2
        time: 0
        value: {x: -0.5, y: 0.5, z: 0.49999914, w: 0.5000009}
        inSlope: {x: 0, y: 0, z: 0, w: 0}
        outSlope: {x: 0, y: 0, z: 0, w: 0}
        tangentMode: 0
      - serializedVersion: 2
        time: 0.033333335
        value: {x: -0.5, y: 0.5, z: 0.49999914, w: 0.5000009}
        inSlope: {x: 0, y: 0, z: 0, w: 0}
        outSlope: {x: 0, y: 0, z: 0, w: 0}
        tangentMode: 0
      m_PreInfinity: 2
      m_PostInfinity: 2
      m_RotationOrder: 4
    path: Bip001/Bip001 Pelvis
  - curve:
      serializedVersion: 2
      m_Curve:
      - serializedVersion: 2
        time: 0
        value: {x: -0.0000017112204, y: 0.00000093778607, z: -0.03766664, w: 0.9992904}
        inSlope: {x: 0, y: 0, z: 0, w: 0}
        outSlope: {x: 0, y: 0, z: 0, w: 0}
        tangentMode: 0
      - serializedVersion: 2
        time: 0.033333335
        value: {x: -0.0000017112204, y: 0.00000093778607, z: -0.03766664, w: 0.9992904}
        inSlope: {x: 0, y: 0, z: 0, w: 0}
        outSlope: {x: 0, y: 0, z: 0, w: 0}
        tangentMode: 0
      m_PreInfinity: 2
      m_PostInfinity: 2
      m_RotationOrder: 4
    path: Bip001/Bip001 Pelvis/Bip001 Spine
  - curve:
      serializedVersion: 2
      m_Curve:
      - serializedVersion: 2
        time: 0
        value: {x: 0, y: -0, z: -0, w: 1}
        inSlope: {x: 0, y: 0, z: 0, w: 0}
        outSlope: {x: 0, y: 0, z: 0, w: 0}
        tangentMode: 0
      - serializedVersion: 2
        time: 0.033333335
        value: {x: 0, y: -0, z: -0, w: 1}
        inSlope: {x: 0, y: 0, z: 0, w: 0}
        outSlope: {x: 0, y: 0, z: 0, w: 0}
        tangentMode: 0
      m_PreInfinity: 2
      m_PostInfinity: 2
      m_RotationOrder: 4
    path: Bip001/Bip001 Pelvis/Bip001 Spine/Bip001 Spine1
  - curve:
      serializedVersion: 2
      m_Curve:
      - serializedVersion: 2
        time: 0
        value: {x: -0.072574005, y: 0.99263453, z: 0.095766075, w: 0.015446922}
        inSlope: {x: -0.06978303, y: -0.0036746261, z: -0.011028125, w: -0.029712588}
        outSlope: {x: -0.06978303, y: -0.0036746261, z: -0.011028125, w: -0.029712588}
        tangentMode: 0
      - serializedVersion: 2
        time: 0.16666667
        value: {x: -0.077638894, y: 0.9921856, z: 0.09555672, w: 0.020219574}
        inSlope: {x: 0.015838677, y: -0.0018998968, z: 0.0093585625, w: 0.10413347}
        outSlope: {x: 0.015838677, y: -0.0018998968, z: 0.0093585625, w: 0.10413347}
        tangentMode: 0
      - serializedVersion: 2
        time: 0.3
        value: {x: -0.084498875, y: 0.9914054, z: 0.09504114, w: 0.030699989}
        inSlope: {x: 0.1592603, y: 0.013459327, z: 0.014784561, w: -0.054124635}
        outSlope: {x: 0.1592603, y: 0.013459327, z: 0.014784561, w: -0.054124635}
        tangentMode: 0
      - serializedVersion: 2
        time: 0.53333336
        value: {x: -0.06980773, y: 0.99270123, z: 0.09700709, w: 0.016148213}
        inSlope: {x: -0.117815934, y: -0.007918769, z: -0.011113388, w: 0.043915644}
        outSlope: {x: -0.117815934, y: -0.007918769, z: -0.011113388, w: 0.043915644}
        tangentMode: 0
      - serializedVersion: 2
        time: 0.70000005
        value: {x: -0.07257284, y: 0.9926346, z: 0.095766075, w: 0.015447301}
        inSlope: {x: -0.009072788, y: 0.0009745351, z: -0.010295427, w: -0.039519496}
        outSlope: {x: -0.009072788, y: 0.0009745351, z: -0.010295427, w: -0.039519496}
        tangentMode: 0
      m_PreInfinity: 2
      m_PostInfinity: 2
      m_RotationOrder: 4
    path: Bip001/Bip001 Pelvis/Bip001 L Thigh
  - curve:
      serializedVersion: 2
      m_Curve:
      - serializedVersion: 2
        time: 0
        value: {x: 0.028436791, y: 0.004884622, z: 0.16929916, w: 0.9851423}
        inSlope: {x: 0.006943065, y: 0.0035460757, z: 0.033046603, w: -0.0059187408}
        outSlope: {x: 0.006943065, y: 0.0035460757, z: 0.033046603, w: -0.0059187408}
        tangentMode: 0
      - serializedVersion: 2
        time: 0.13333334
        value: {x: 0.038863074, y: 0.007566072, z: 0.17996176, w: 0.98287654}
        inSlope: {x: 0.06633439, y: 0.012190145, z: -0.06777183, w: 0.009655059}
        outSlope: {x: 0.06633439, y: 0.012190145, z: -0.06777183, w: 0.009655059}
        tangentMode: 0
      - serializedVersion: 2
        time: 0.23333335
        value: {x: 0.043204222, y: 0.0085625695, z: 0.18429951, w: 0.98188275}
        inSlope: {x: -0.07420175, y: -0.0073067774, z: 0.20392367, w: -0.035137836}
        outSlope: {x: -0.07420175, y: -0.0073067774, z: 0.20392367, w: -0.035137836}
        tangentMode: 0
      - serializedVersion: 2
        time: 0.33333334
        value: {x: 0.023261802, y: 0.0041621164, z: 0.18415391, w: 0.9826133}
        inSlope: {x: -0.07875422, y: -0.017267035, z: -0.1629726, w: 0.032857064}
        outSlope: {x: -0.07875422, y: -0.017267035, z: -0.1629726, w: 0.032857064}
        tangentMode: 0
      - serializedVersion: 2
        time: 0.4666667
        value: {x: 0.033076636, y: 0.0063962853, z: 0.17402165, w: 0.9841654}
        inSlope: {x: 0.21893515, y: 0.039436102, z: -0.14095059, w: 0.017469233}
        outSlope: {x: 0.21893515, y: 0.039436102, z: -0.14095059, w: 0.017469233}
        tangentMode: 0
      - serializedVersion: 2
        time: 0.6333334
        value: {x: 0.03907774, y: 0.0071860193, z: 0.17128725, w: 0.9844196}
        inSlope: {x: -0.22434202, y: -0.05151286, z: -0.02830604, w: 0.014348032}
        outSlope: {x: -0.22434202, y: -0.05151286, z: -0.02830604, w: 0.014348032}
        tangentMode: 0
      - serializedVersion: 2
        time: 0.70000005
        value: {x: 0.028436959, y: 0.00488464, z: 0.16929697, w: 0.98514265}
        inSlope: {x: -0.11502834, y: -0.022861132, z: -0.010884395, w: 0.005539651}
        outSlope: {x: -0.11502834, y: -0.022861132, z: -0.010884395, w: 0.005539651}
        tangentMode: 0
      m_PreInfinity: 2
      m_PostInfinity: 2
      m_RotationOrder: 4
    path: Bip001/Bip001 Pelvis/Bip001 L Thigh/Bip001 L Calf
  - curve:
      serializedVersion: 2
      m_Curve:
      - serializedVersion: 2
        time: 0
        value: {x: -0.053192988, y: 0.0030241474, z: -0.09689357, w: 0.9938677}
        inSlope: {x: 0.0033941118, y: 0.026497835, z: 0.01629509, w: 0.0016736983}
        outSlope: {x: 0.0033941118, y: 0.026497835, z: 0.01629509, w: 0.0016736983}
        tangentMode: 0
      - serializedVersion: 2
        time: 0.20000002
        value: {x: -0.0527892, y: 0.0046650255, z: -0.0984585, w: 0.99372905}
        inSlope: {x: 0.008776748, y: 0.004392989, z: -0.05324107, w: -0.0049147015}
        outSlope: {x: 0.008776748, y: 0.004392989, z: -0.05324107, w: -0.0049147015}
        tangentMode: 0
      - serializedVersion: 2
        time: 0.36666667
        value: {x: -0.053394195, y: 0.0071186605, z: -0.10578153, w: 0.99292934}
        inSlope: {x: 0.0008790368, y: -0.037133813, z: 0.022753624, w: 0.0027438996}
        outSlope: {x: 0.0008790368, y: -0.037133813, z: 0.022753624, w: 0.0027438996}
        tangentMode: 0
      - serializedVersion: 2
        time: 0.6
        value: {x: -0.052537188, y: -0.00031481442, z: -0.09508322, w: 0.994082}
        inSlope: {x: -0.0025389867, y: 0.03963337, z: -0.04517075, w: -0.004453361}
        outSlope: {x: -0.0025389867, y: 0.03963337, z: -0.04517075, w: -0.004453361}
        tangentMode: 0
      - serializedVersion: 2
        time: 0.70000005
        value: {x: -0.053192873, y: 0.0030247387, z: -0.09689292, w: 0.99386775}
        inSlope: {x: -0.0062747994, y: 0.02418858, z: 0.0007081026, w: -0.00033080552}
        outSlope: {x: -0.0062747994, y: 0.02418858, z: 0.0007081026, w: -0.00033080552}
        tangentMode: 0
      m_PreInfinity: 2
      m_PostInfinity: 2
      m_RotationOrder: 4
    path: Bip001/Bip001 Pelvis/Bip001 L Thigh/Bip001 L Calf/Bip001 L Foot
  - curve:
      serializedVersion: 2
      m_Curve:
      - serializedVersion: 2
        time: 0
        value: {x: -0.000020671625, y: 0.000020485944, z: -0.70747125, w: 0.7067422}
        inSlope: {x: 0, y: 0, z: 0, w: 0}
        outSlope: {x: 0, y: 0, z: 0, w: 0}
        tangentMode: 0
      - serializedVersion: 2
        time: 0.70000005
        value: {x: -0.000020671625, y: 0.000020485944, z: -0.70747125, w: 0.7067422}
        inSlope: {x: 0, y: 0, z: 0, w: 0}
        outSlope: {x: 0, y: 0, z: 0, w: 0}
        tangentMode: 0
      m_PreInfinity: 2
      m_PostInfinity: 2
      m_RotationOrder: 4
    path: Bip001/Bip001 Pelvis/Bip001 L Thigh/Bip001 L Calf/Bip001 L Foot/Bip001 L
      Toe0
  - curve:
      serializedVersion: 2
      m_Curve:
      - serializedVersion: 2
        time: 0
        value: {x: -0.06585628, y: 0.9977489, z: 0.0057505006, w: 0.011266445}
        inSlope: {x: -0.20796663, y: -0.01426041, z: -0.00043180768, w: -0.01711716}
        outSlope: {x: -0.20796663, y: -0.01426041, z: -0.00043180768, w: -0.01711716}
        tangentMode: 0
      - serializedVersion: 2
        time: 0.16666667
        value: {x: -0.06702243, y: 0.99756825, z: 0.0051464555, w: 0.018415507}
        inSlope: {x: 0.25998792, y: 0.0152367335, z: -0.0015164327, w: 0.09272884}
        outSlope: {x: 0.25998792, y: 0.0152367335, z: -0.0015164327, w: 0.09272884}
        tangentMode: 0
      - serializedVersion: 2
        time: 0.26666668
        value: {x: -0.054304354, y: 0.9981463, z: 0.004844314, w: 0.02704778}
        inSlope: {x: -0.041471146, y: -0.0019973519, z: -0.0005809427, w: -0.00907112}
        outSlope: {x: -0.041471146, y: -0.0019973519, z: -0.0005809427, w: -0.00907112}
        tangentMode: 0
      - serializedVersion: 2
        time: 0.40000004
        value: {x: -0.062202163, y: 0.9979377, z: 0.006287892, w: 0.014553981}
        inSlope: {x: -0.11673051, y: -0.0059214197, z: 0.00848172, w: -0.078884736}
        outSlope: {x: -0.11673051, y: -0.0059214197, z: 0.00848172, w: -0.078884736}
        tangentMode: 0
      - serializedVersion: 2
        time: 0.6
        value: {x: -0.05458168, y: 0.9983482, z: 0.0050017703, w: 0.017227424}
        inSlope: {x: -0.01825407, y: -0.0008547289, z: -0.0013020494, w: -0.010116145}
        outSlope: {x: -0.01825407, y: -0.0008547289, z: -0.0013020494, w: -0.010116145}
        tangentMode: 0
      - serializedVersion: 2
        time: 0.70000005
        value: {x: -0.065852694, y: 0.99774915, z: 0.005750486, w: 0.011266865}
        inSlope: {x: -0.1451636, y: -0.008658163, z: 0.0083018495, w: -0.0507989}
        outSlope: {x: -0.1451636, y: -0.008658163, z: 0.0083018495, w: -0.0507989}
        tangentMode: 0
      m_PreInfinity: 2
      m_PostInfinity: 2
      m_RotationOrder: 4
    path: Bip001/Bip001 Pelvis/Bip001 R Thigh
  - curve:
      serializedVersion: 2
      m_Curve:
      - serializedVersion: 2
        time: 0
        value: {x: 0.046429623, y: 0.0038872492, z: 0.14575826, w: 0.98822254}
        inSlope: {x: 0.017233752, y: 0.034403324, z: 0.33524927, w: -0.052360293}
        outSlope: {x: 0.017233752, y: 0.034403324, z: 0.33524927, w: -0.052360293}
        tangentMode: 0
      - serializedVersion: 2
        time: 0.16666667
        value: {x: 0.058408413, y: 0.011990029, z: 0.154252, w: 0.98623073}
        inSlope: {x: 0.04311583, y: -0.039435893, z: -0.5017386, w: 0.074492976}
        outSlope: {x: 0.04311583, y: -0.039435893, z: -0.5017386, w: 0.074492976}
        tangentMode: 0
      - serializedVersion: 2
        time: 0.23333335
        value: {x: 0.05926461, y: 0.0079646725, z: 0.121565826, w: 0.99078053}
        inSlope: {x: -0.091373086, y: -0.06579988, z: -0.21068026, w: 0.032829348}
        outSlope: {x: -0.091373086, y: -0.06579988, z: -0.21068026, w: 0.032829348}
        tangentMode: 0
      - serializedVersion: 2
        time: 0.33333334
        value: {x: 0.039444827, y: 0.00039558043, z: 0.121812254, w: 0.991769}
        inSlope: {x: -0.08358407, y: -0.024209239, z: 0.18813743, w: -0.02045721}
        outSlope: {x: -0.08358407, y: -0.024209239, z: 0.18813743, w: -0.02045721}
        tangentMode: 0
      - serializedVersion: 2
        time: 0.43333337
        value: {x: 0.042870715, y: 0.005390874, z: 0.15843664, w: 0.98642325}
        inSlope: {x: 0.18956825, y: 0.106429875, z: 0.12329714, w: -0.028186442}
        outSlope: {x: 0.18956825, y: 0.106429875, z: 0.12329714, w: -0.028186442}
        tangentMode: 0
      - serializedVersion: 2
        time: 0.6
        value: {x: 0.0641989, y: 0.011100952, z: 0.13432726, w: 0.98879296}
        inSlope: {x: -0.16020852, y: -0.08362709, z: -0.091852315, w: 0.02369196}
        outSlope: {x: -0.16020852, y: -0.08362709, z: -0.091852315, w: 0.02369196}
        tangentMode: 0
      - serializedVersion: 2
        time: 0.70000005
        value: {x: 0.046429746, y: 0.0038869306, z: 0.14575116, w: 0.98822355}
        inSlope: {x: -0.10952311, y: -0.043267824, z: 0.18754034, w: -0.02150951}
        outSlope: {x: -0.10952311, y: -0.043267824, z: 0.18754034, w: -0.02150951}
        tangentMode: 0
      m_PreInfinity: 2
      m_PostInfinity: 2
      m_RotationOrder: 4
    path: Bip001/Bip001 Pelvis/Bip001 R Thigh/Bip001 R Calf
  - curve:
      serializedVersion: 2
      m_Curve:
      - serializedVersion: 2
        time: 0
        value: {x: -0.024514183, y: 0.0032559603, z: -0.080587775, w: 0.9964407}
        inSlope: {x: 0.005849562, y: 0.012536079, z: -0.15858425, w: -0.013149976}
        outSlope: {x: 0.005849562, y: 0.012536079, z: -0.15858425, w: -0.013149976}
        tangentMode: 0
      - serializedVersion: 2
        time: 0.16666667
        value: {x: -0.02466501, y: 0.002487062, z: -0.087762944, w: 0.9958329}
        inSlope: {x: 0.00010128107, y: 0.031955253, z: 0.24875337, w: 0.02135038}
        outSlope: {x: 0.00010128107, y: 0.031955253, z: 0.24875337, w: 0.02135038}
        tangentMode: 0
      - serializedVersion: 2
        time: 0.36666667
        value: {x: -0.024117108, y: 0.008153112, z: -0.073571526, w: 0.99696493}
        inSlope: {x: -0.0033202094, y: -0.042637046, z: -0.20031679, w: -0.014663629}
        outSlope: {x: -0.0033202094, y: -0.042637046, z: -0.20031679, w: -0.014663629}
        tangentMode: 0
      - serializedVersion: 2
        time: 0.6
        value: {x: -0.024016347, y: -0.0008798883, z: -0.078701474, w: 0.9966085}
        inSlope: {x: -0.002884075, y: 0.059024274, z: 0.070400625, w: 0.0055629034}
        outSlope: {x: -0.002884075, y: 0.059024274, z: 0.070400625, w: 0.0055629034}
        tangentMode: 0
      - serializedVersion: 2
        time: 0.70000005
        value: {x: -0.024514135, y: 0.0032564492, z: -0.080585614, w: 0.9964409}
        inSlope: {x: 0.009121515, y: 0.02885949, z: -0.06742464, w: -0.0052303034}
        outSlope: {x: 0.009121515, y: 0.02885949, z: -0.06742464, w: -0.0052303034}
        tangentMode: 0
      m_PreInfinity: 2
      m_PostInfinity: 2
      m_RotationOrder: 4
    path: Bip001/Bip001 Pelvis/Bip001 R Thigh/Bip001 R Calf/Bip001 R Foot
  - curve:
      serializedVersion: 2
      m_Curve:
      - serializedVersion: 2
        time: 0
        value: {x: -0.000000053819917, y: 0.00000001113795, z: -0.7071403, w: 0.7070733}
        inSlope: {x: 0, y: 0, z: 0, w: 0}
        outSlope: {x: 0, y: 0, z: 0, w: 0}
        tangentMode: 0
      - serializedVersion: 2
        time: 0.70000005
        value: {x: -0.000000053819917, y: 0.00000001113795, z: -0.7071403, w: 0.7070733}
        inSlope: {x: 0, y: 0, z: 0, w: 0}
        outSlope: {x: 0, y: 0, z: 0, w: 0}
        tangentMode: 0
      m_PreInfinity: 2
      m_PostInfinity: 2
      m_RotationOrder: 4
    path: Bip001/Bip001 Pelvis/Bip001 R Thigh/Bip001 R Calf/Bip001 R Foot/Bip001 R
      Toe0
  - curve:
      serializedVersion: 2
      m_Curve:
      - serializedVersion: 2
        time: 0
        value: {x: -0.42959467, y: 0.5539877, z: 0.5443648, w: 0.46066585}
        inSlope: {x: -0.032654107, y: -0.011295675, z: 0.03063619, w: -0.053248998}
        outSlope: {x: -0.032654107, y: -0.011295675, z: 0.03063619, w: -0.053248998}
        tangentMode: 0
      - serializedVersion: 2
        time: 0.36666667
        value: {x: -0.42515698, y: 0.5566996, z: 0.5438808, w: 0.4620831}
        inSlope: {x: -0.007373836, y: -0.059033614, z: 0.035281774, w: 0.022853747}
        outSlope: {x: -0.007373836, y: -0.059033614, z: 0.035281774, w: 0.022853747}
        tangentMode: 0
      - serializedVersion: 2
        time: 0.6333334
        value: {x: -0.43023866, y: 0.5536101, z: 0.54377246, w: 0.46121803}
        inSlope: {x: 0.034189217, y: 0.025682148, z: -0.015730252, w: 0.01968919}
        outSlope: {x: 0.034189217, y: 0.025682148, z: -0.015730252, w: 0.01968919}
        tangentMode: 0
      - serializedVersion: 2
        time: 0.70000005
        value: {x: -0.42959496, y: 0.5539875, z: 0.5443649, w: 0.46066564}
        inSlope: {x: -0.0034698816, y: -0.0072848736, z: 0.021888595, w: -0.020306094}
        outSlope: {x: -0.0034698816, y: -0.0072848736, z: 0.021888595, w: -0.020306094}
        tangentMode: 0
      m_PreInfinity: 2
      m_PostInfinity: 2
      m_RotationOrder: 4
    path: Bip001/Bip001 Spine3
  - curve:
      serializedVersion: 2
      m_Curve:
      - serializedVersion: 2
        time: 0
        value: {x: 0.040505636, y: -0.021902956, z: -0.1052909, w: 0.99337476}
        inSlope: {x: -0.12721919, y: 0.04627408, z: 0.03897853, w: 0.010004639}
        outSlope: {x: -0.12721919, y: 0.04627408, z: 0.03897853, w: 0.010004639}
        tangentMode: 0
      - serializedVersion: 2
        time: 0.26666668
        value: {x: 0.051939435, y: -0.012632243, z: -0.100272864, w: 0.99352306}
        inSlope: {x: 0.099059016, y: -0.06966298, z: 0.03263746, w: -0.0029137733}
        outSlope: {x: 0.099059016, y: -0.06966298, z: 0.03263746, w: -0.0029137733}
        tangentMode: 0
      - serializedVersion: 2
        time: 0.5
        value: {x: 0.034246925, y: -0.02611572, z: -0.10542618, w: 0.9934941}
        inSlope: {x: -0.06505248, y: 0.07007647, z: 0.0180972, w: 0.0060403356}
        outSlope: {x: -0.06505248, y: 0.07007647, z: 0.0180972, w: 0.0060403356}
        tangentMode: 0
      - serializedVersion: 2
        time: 0.70000005
        value: {x: 0.04050515, y: -0.021902716, z: -0.105290875, w: 0.9933748}
        inSlope: {x: -0.052837573, y: -0.0040927124, z: 0.031063084, w: 0.005421634}
        outSlope: {x: -0.052837573, y: -0.0040927124, z: 0.031063084, w: 0.005421634}
        tangentMode: 0
      m_PreInfinity: 2
      m_PostInfinity: 2
      m_RotationOrder: 4
    path: Bip001/Bip001 Spine3/Bip001 Neck
  - curve:
      serializedVersion: 2
      m_Curve:
      - serializedVersion: 2
        time: 0
        value: {x: -0.6798627, y: -0.10138117, z: 0.7246749, w: -0.04852885}
        inSlope: {x: 0.022040604, y: 0.0022090226, z: 0.021069644, w: 0.0015490873}
        outSlope: {x: 0.022040604, y: 0.0022090226, z: 0.021069644, w: 0.0015490873}
        tangentMode: 0
      - serializedVersion: 2
        time: 0.33333334
        value: {x: -0.6785264, y: -0.101870686, z: 0.7258861, w: -0.048101734}
        inSlope: {x: -0.07940055, y: 0.067608215, z: -0.06771595, w: -0.045255408}
        outSlope: {x: -0.07940055, y: 0.067608215, z: -0.06771595, w: -0.045255408}
        tangentMode: 0
      - serializedVersion: 2
        time: 0.5
        value: {x: -0.6796596, y: -0.100328535, z: 0.7249615, w: -0.049273357}
        inSlope: {x: 0.1351869, y: -0.10478049, z: 0.11679141, w: 0.0726317}
        outSlope: {x: 0.1351869, y: -0.10478049, z: 0.11679141, w: 0.0726317}
        tangentMode: 0
      - serializedVersion: 2
        time: 0.6333334
        value: {x: -0.671209, y: -0.10658304, z: 0.73219573, w: -0.0448108}
        inSlope: {x: -0.097884566, y: 0.06310099, z: -0.08350167, w: -0.043845467}
        outSlope: {x: -0.097884566, y: 0.06310099, z: -0.08350167, w: -0.043845467}
        tangentMode: 0
      - serializedVersion: 2
        time: 0.70000005
        value: {x: -0.67986065, y: -0.1013587, z: 0.7246812, w: -0.048508547}
        inSlope: {x: -0.13515103, y: 0.07855692, z: -0.1186054, w: -0.056159038}
        outSlope: {x: -0.13515103, y: 0.07855692, z: -0.1186054, w: -0.056159038}
        tangentMode: 0
      m_PreInfinity: 2
      m_PostInfinity: 2
      m_RotationOrder: 4
    path: Bip001/Bip001 Spine3/Bip001 Neck/Bip001 L Clavicle
  - curve:
      serializedVersion: 2
      m_Curve:
      - serializedVersion: 2
        time: 0
        value: {x: 0.42345902, y: -0.42335457, z: 0.32761648, w: 0.7308357}
        inSlope: {x: 0.14828055, y: -0.037392672, z: -0.3098121, w: 0.028563736}
        outSlope: {x: 0.14828055, y: -0.037392672, z: -0.3098121, w: 0.028563736}
        tangentMode: 0
      - serializedVersion: 2
        time: 0.23333335
        value: {x: 0.42039108, y: -0.42586258, z: 0.27758485, w: 0.75157106}
        inSlope: {x: -0.015085192, y: 0.049454127, z: -0.14505075, w: 0.09037704}
        outSlope: {x: -0.015085192, y: 0.049454127, z: -0.14505075, w: 0.09037704}
        tangentMode: 0
      - serializedVersion: 2
        time: 0.36666667
        value: {x: 0.41820648, y: -0.44294846, z: 0.28117272, w: 0.74151325}
        inSlope: {x: 0.15254968, y: -0.02682389, z: 0.22071394, w: -0.18641524}
        outSlope: {x: 0.15254968, y: -0.02682389, z: 0.22071394, w: -0.18641524}
        tangentMode: 0
      - serializedVersion: 2
        time: 0.5
        value: {x: 0.4344576, y: -0.41727176, z: 0.31924787, w: 0.7315817}
        inSlope: {x: 0.069969475, y: 0.38839597, z: 0.20137002, w: 0.09231714}
        outSlope: {x: 0.069969475, y: 0.38839597, z: 0.20137002, w: 0.09231714}
        tangentMode: 0
      - serializedVersion: 2
        time: 0.6
        value: {x: 0.4277171, y: -0.39596516, z: 0.33174405, w: 0.7417652}
        inSlope: {x: -0.16337737, y: -0.12409364, z: 0.055474825, w: 0.0025999974}
        outSlope: {x: -0.16337737, y: -0.12409364, z: 0.055474825, w: 0.0025999974}
        tangentMode: 0
      - serializedVersion: 2
        time: 0.70000005
        value: {x: 0.42345878, y: -0.42335463, z: 0.32761618, w: 0.7308359}
        inSlope: {x: 0.0970485, y: -0.26810443, z: -0.08335852, w: -0.17148778}
        outSlope: {x: 0.0970485, y: -0.26810443, z: -0.08335852, w: -0.17148778}
        tangentMode: 0
      m_PreInfinity: 2
      m_PostInfinity: 2
      m_RotationOrder: 4
    path: Bip001/Bip001 Spine3/Bip001 Neck/Bip001 L Clavicle/Bip001 L UpperArm
  - curve:
      serializedVersion: 2
      m_Curve:
      - serializedVersion: 2
        time: 0
        value: {x: 0.0022703747, y: 0.0020148978, z: 0.21679352, w: 0.9762128}
        inSlope: {x: 0.0043740403, y: 0.0038740665, z: 0.41740444, w: -0.09584605}
        outSlope: {x: 0.0043740403, y: 0.0038740665, z: 0.41740444, w: -0.09584605}
        tangentMode: 0
      - serializedVersion: 2
        time: 0.16666667
        value: {x: 0.0026795736, y: 0.0023776728, z: 0.2558586, w: 0.9667076}
        inSlope: {x: 0.0011317312, y: 0.000994736, z: 0.107946806, w: -0.028865924}
        outSlope: {x: 0.0011317312, y: 0.000994736, z: 0.107946806, w: -0.028865924}
        tangentMode: 0
      - serializedVersion: 2
        time: 0.26666668
        value: {x: 0.002903387, y: 0.0025763968, z: 0.27722186, w: 0.9607981}
        inSlope: {x: -0.0007152872, y: -0.0006369653, z: -0.068267144, w: 0.019170644}
        outSlope: {x: -0.0007152872, y: -0.0006369653, z: -0.068267144, w: 0.019170644}
        tangentMode: 0
      - serializedVersion: 2
        time: 0.36666667
        value: {x: 0.002668283, y: 0.002367643, z: 0.25478372, w: 0.9669915}
        inSlope: {x: -0.0019228847, y: -0.0017070472, z: -0.18368924, w: 0.048416536}
        outSlope: {x: -0.0019228847, y: -0.0017070472, z: -0.18368924, w: 0.048416536}
        tangentMode: 0
      - serializedVersion: 2
        time: 0.53333336
        value: {x: 0.0024484196, y: 0.0021725206, z: 0.23378517, w: 0.97228277}
        inSlope: {x: -0.0007554114, y: -0.000670618, z: -0.07236706, w: 0.017296657}
        outSlope: {x: -0.0007554114, y: -0.000670618, z: -0.07236706, w: 0.017296657}
        tangentMode: 0
      - serializedVersion: 2
        time: 0.70000005
        value: {x: 0.0022704948, y: 0.002014825, z: 0.21679386, w: 0.9762127}
        inSlope: {x: 0.00087251345, y: 0.00077928585, z: 0.08286365, w: -0.01828371}
        outSlope: {x: 0.00087251345, y: 0.00077928585, z: 0.08286365, w: -0.01828371}
        tangentMode: 0
      m_PreInfinity: 2
      m_PostInfinity: 2
      m_RotationOrder: 4
    path: Bip001/Bip001 Spine3/Bip001 Neck/Bip001 L Clavicle/Bip001 L UpperArm/Bip001
      L Forearm
  - curve:
      serializedVersion: 2
      m_Curve:
      - serializedVersion: 2
        time: 0
        value: {x: -0.8291619, y: -0.051861066, z: 0.010169708, w: 0.5565048}
        inSlope: {x: -0.0826317, y: 0.58902645, z: -0.09714596, w: -0.07750689}
        outSlope: {x: -0.0826317, y: 0.58902645, z: -0.09714596, w: -0.07750689}
        tangentMode: 0
      - serializedVersion: 2
        time: 0.13333334
        value: {x: -0.8260454, y: 0.0063929004, z: 0.0050266753, w: 0.5635449}
        inSlope: {x: 0.11656792, y: 0.15994705, z: -0.078412265, w: 0.17003597}
        outSlope: {x: 0.11656792, y: 0.15994705, z: -0.078412265, w: 0.17003597}
        tangentMode: 0
      - serializedVersion: 2
        time: 0.26666668
        value: {x: -0.81643057, y: 0.030316466, z: -0.0095332805, w: 0.5765685}
        inSlope: {x: -0.030113164, y: 0.04171537, z: -0.01734655, w: -0.044937734}
        outSlope: {x: -0.030113164, y: 0.04171537, z: -0.01734655, w: -0.044937734}
        tangentMode: 0
      - serializedVersion: 2
        time: 0.4666667
        value: {x: -0.82484293, y: -0.039150957, z: 0.007933311, w: 0.5639489}
        inSlope: {x: 0.06989662, y: -0.1662513, z: 0.07021952, w: 0.08995509}
        outSlope: {x: 0.06989662, y: -0.1662513, z: 0.07021952, w: 0.08995509}
        tangentMode: 0
      - serializedVersion: 2
        time: 0.6666667
        value: {x: -0.8246408, y: -0.046226785, z: 0.007792151, w: 0.5637108}
        inSlope: {x: -0.109485075, y: -0.14555319, z: 0.043992594, w: -0.17358539}
        outSlope: {x: -0.109485075, y: -0.14555319, z: 0.043992594, w: -0.17358539}
        tangentMode: 0
      - serializedVersion: 2
        time: 0.70000005
        value: {x: -0.82916194, y: -0.051861342, z: 0.01016934, w: 0.5565048}
        inSlope: {x: -0.13563383, y: -0.16903658, z: 0.07131562, w: -0.2161805}
        outSlope: {x: -0.13563383, y: -0.16903658, z: 0.07131562, w: -0.2161805}
        tangentMode: 0
      m_PreInfinity: 2
      m_PostInfinity: 2
      m_RotationOrder: 4
    path: Bip001/Bip001 Spine3/Bip001 Neck/Bip001 L Clavicle/Bip001 L UpperArm/Bip001
      L Forearm/Bip001 L Hand
  - curve:
      serializedVersion: 2
      m_Curve:
      - serializedVersion: 2
        time: 0
        value: {x: 0.4403526, y: -0.26348305, z: -0.018580288, w: 0.85809153}
        inSlope: {x: 0, y: 0, z: 0, w: 0}
        outSlope: {x: 0, y: 0, z: 0, w: 0}
        tangentMode: 0
      - serializedVersion: 2
        time: 0.033333335
        value: {x: 0.4403526, y: -0.26348305, z: -0.018580288, w: 0.85809153}
        inSlope: {x: 0, y: 0, z: 0, w: 0}
        outSlope: {x: 0, y: 0, z: 0, w: 0}
        tangentMode: 0
      m_PreInfinity: 2
      m_PostInfinity: 2
      m_RotationOrder: 4
    path: Bip001/Bip001 Spine3/Bip001 Neck/Bip001 L Clavicle/Bip001 L UpperArm/Bip001
      L Forearm/Bip001 L Hand/Bip001 L Finger0
  - curve:
      serializedVersion: 2
      m_Curve:
      - serializedVersion: 2
        time: 0
        value: {x: 0.016657623, y: 0.14781523, z: -0.12744823, w: 0.9806274}
        inSlope: {x: 0, y: 0, z: 0, w: 0}
        outSlope: {x: 0, y: 0, z: 0, w: 0}
        tangentMode: 0
      - serializedVersion: 2
        time: 0.033333335
        value: {x: 0.016657623, y: 0.14781523, z: -0.12744823, w: 0.9806274}
        inSlope: {x: 0, y: 0, z: 0, w: 0}
        outSlope: {x: 0, y: 0, z: 0, w: 0}
        tangentMode: 0
      m_PreInfinity: 2
      m_PostInfinity: 2
      m_RotationOrder: 4
    path: Bip001/Bip001 Spine3/Bip001 Neck/Bip001 L Clavicle/Bip001 L UpperArm/Bip001
      L Forearm/Bip001 L Hand/Bip001 L Finger0/Bip001 L Finger01
  - curve:
      serializedVersion: 2
      m_Curve:
      - serializedVersion: 2
        time: 0
        value: {x: -0.0012398562, y: 0.11874464, z: 0.057779156, w: 0.9912415}
        inSlope: {x: 0, y: 0, z: 0, w: 0}
        outSlope: {x: 0, y: 0, z: 0, w: 0}
        tangentMode: 0
      - serializedVersion: 2
        time: 0.033333335
        value: {x: -0.0012398562, y: 0.11874464, z: 0.057779156, w: 0.9912415}
        inSlope: {x: 0, y: 0, z: 0, w: 0}
        outSlope: {x: 0, y: 0, z: 0, w: 0}
        tangentMode: 0
      m_PreInfinity: 2
      m_PostInfinity: 2
      m_RotationOrder: 4
    path: Bip001/Bip001 Spine3/Bip001 Neck/Bip001 L Clavicle/Bip001 L UpperArm/Bip001
      L Forearm/Bip001 L Hand/Bip001 L Finger0/Bip001 L Finger01/Bip001 L Finger02
  - curve:
      serializedVersion: 2
      m_Curve:
      - serializedVersion: 2
        time: 0
        value: {x: -0.01060291, y: -0.043721117, z: -0.17326018, w: 0.98384804}
        inSlope: {x: 0, y: 0, z: 0, w: 0}
        outSlope: {x: 0, y: 0, z: 0, w: 0}
        tangentMode: 0
      - serializedVersion: 2
        time: 0.033333335
        value: {x: -0.01060291, y: -0.043721117, z: -0.17326018, w: 0.98384804}
        inSlope: {x: 0, y: 0, z: 0, w: 0}
        outSlope: {x: 0, y: 0, z: 0, w: 0}
        tangentMode: 0
      m_PreInfinity: 2
      m_PostInfinity: 2
      m_RotationOrder: 4
    path: Bip001/Bip001 Spine3/Bip001 Neck/Bip001 L Clavicle/Bip001 L UpperArm/Bip001
      L Forearm/Bip001 L Hand/Bip001 L Finger1
  - curve:
      serializedVersion: 2
      m_Curve:
      - serializedVersion: 2
        time: 0
        value: {x: 0.00000009064137, y: -0.0017361225, z: -0.105359375, w: 0.9944327}
        inSlope: {x: 0, y: 0, z: 0, w: 0}
        outSlope: {x: 0, y: 0, z: 0, w: 0}
        tangentMode: 0
      - serializedVersion: 2
        time: 0.033333335
        value: {x: 0.00000009064137, y: -0.0017361225, z: -0.105359375, w: 0.9944327}
        inSlope: {x: 0, y: 0, z: 0, w: 0}
        outSlope: {x: 0, y: 0, z: 0, w: 0}
        tangentMode: 0
      m_PreInfinity: 2
      m_PostInfinity: 2
      m_RotationOrder: 4
    path: Bip001/Bip001 Spine3/Bip001 Neck/Bip001 L Clavicle/Bip001 L UpperArm/Bip001
      L Forearm/Bip001 L Hand/Bip001 L Finger1/Bip001 L Finger11
  - curve:
      serializedVersion: 2
      m_Curve:
      - serializedVersion: 2
        time: 0
        value: {x: -0.00000010842771, y: -0.00096096, z: -0.05832652, w: 0.9982971}
        inSlope: {x: 0, y: 0, z: 0, w: 0}
        outSlope: {x: 0, y: 0, z: 0, w: 0}
        tangentMode: 0
      - serializedVersion: 2
        time: 0.033333335
        value: {x: -0.00000010842771, y: -0.00096096, z: -0.05832652, w: 0.9982971}
        inSlope: {x: 0, y: 0, z: 0, w: 0}
        outSlope: {x: 0, y: 0, z: 0, w: 0}
        tangentMode: 0
      m_PreInfinity: 2
      m_PostInfinity: 2
      m_RotationOrder: 4
    path: Bip001/Bip001 Spine3/Bip001 Neck/Bip001 L Clavicle/Bip001 L UpperArm/Bip001
      L Forearm/Bip001 L Hand/Bip001 L Finger1/Bip001 L Finger11/Bip001 L Finger12
  - curve:
      serializedVersion: 2
      m_Curve:
      - serializedVersion: 2
        time: 0
        value: {x: -0.017401516, y: -0.049585946, z: -0.15473767, w: 0.986557}
        inSlope: {x: 0, y: 0, z: 0, w: 0}
        outSlope: {x: 0, y: 0, z: 0, w: 0}
        tangentMode: 0
      - serializedVersion: 2
        time: 0.033333335
        value: {x: -0.017401516, y: -0.049585946, z: -0.15473767, w: 0.986557}
        inSlope: {x: 0, y: 0, z: 0, w: 0}
        outSlope: {x: 0, y: 0, z: 0, w: 0}
        tangentMode: 0
      m_PreInfinity: 2
      m_PostInfinity: 2
      m_RotationOrder: 4
    path: Bip001/Bip001 Spine3/Bip001 Neck/Bip001 L Clavicle/Bip001 L UpperArm/Bip001
      L Forearm/Bip001 L Hand/Bip001 L Finger2
  - curve:
      serializedVersion: 2
      m_Curve:
      - serializedVersion: 2
        time: 0
        value: {x: 0.0000000126814355, y: -0.0018648534, z: -0.113179, w: 0.9935729}
        inSlope: {x: 0, y: 0, z: 0, w: 0}
        outSlope: {x: 0, y: 0, z: 0, w: 0}
        tangentMode: 0
      - serializedVersion: 2
        time: 0.033333335
        value: {x: 0.0000000126814355, y: -0.0018648534, z: -0.113179, w: 0.9935729}
        inSlope: {x: 0, y: 0, z: 0, w: 0}
        outSlope: {x: 0, y: 0, z: 0, w: 0}
        tangentMode: 0
      m_PreInfinity: 2
      m_PostInfinity: 2
      m_RotationOrder: 4
    path: Bip001/Bip001 Spine3/Bip001 Neck/Bip001 L Clavicle/Bip001 L UpperArm/Bip001
      L Forearm/Bip001 L Hand/Bip001 L Finger2/Bip001 L Finger21
  - curve:
      serializedVersion: 2
      m_Curve:
      - serializedVersion: 2
        time: 0
        value: {x: 0.00000009085636, y: -0.0012903136, z: -0.078302465, w: 0.9969288}
        inSlope: {x: 0, y: 0, z: 0, w: 0}
        outSlope: {x: 0, y: 0, z: 0, w: 0}
        tangentMode: 0
      - serializedVersion: 2
        time: 0.033333335
        value: {x: 0.00000009085636, y: -0.0012903136, z: -0.078302465, w: 0.9969288}
        inSlope: {x: 0, y: 0, z: 0, w: 0}
        outSlope: {x: 0, y: 0, z: 0, w: 0}
        tangentMode: 0
      m_PreInfinity: 2
      m_PostInfinity: 2
      m_RotationOrder: 4
    path: Bip001/Bip001 Spine3/Bip001 Neck/Bip001 L Clavicle/Bip001 L UpperArm/Bip001
      L Forearm/Bip001 L Hand/Bip001 L Finger2/Bip001 L Finger21/Bip001 L Finger22
  - curve:
      serializedVersion: 2
      m_Curve:
      - serializedVersion: 2
        time: 0
        value: {x: -0.0210362, y: -0.07433204, z: -0.15383255, w: 0.9850725}
        inSlope: {x: 0, y: 0, z: 0, w: 0}
        outSlope: {x: 0, y: 0, z: 0, w: 0}
        tangentMode: 0
      - serializedVersion: 2
        time: 0.033333335
        value: {x: -0.0210362, y: -0.07433204, z: -0.15383255, w: 0.9850725}
        inSlope: {x: 0, y: 0, z: 0, w: 0}
        outSlope: {x: 0, y: 0, z: 0, w: 0}
        tangentMode: 0
      m_PreInfinity: 2
      m_PostInfinity: 2
      m_RotationOrder: 4
    path: Bip001/Bip001 Spine3/Bip001 Neck/Bip001 L Clavicle/Bip001 L UpperArm/Bip001
      L Forearm/Bip001 L Hand/Bip001 L Finger3
  - curve:
      serializedVersion: 2
      m_Curve:
      - serializedVersion: 2
        time: 0
        value: {x: 0.00000005505398, y: -0.0018647951, z: -0.11317887, w: 0.9935729}
        inSlope: {x: 0, y: 0, z: 0, w: 0}
        outSlope: {x: 0, y: 0, z: 0, w: 0}
        tangentMode: 0
      - serializedVersion: 2
        time: 0.033333335
        value: {x: 0.00000005505398, y: -0.0018647951, z: -0.11317887, w: 0.9935729}
        inSlope: {x: 0, y: 0, z: 0, w: 0}
        outSlope: {x: 0, y: 0, z: 0, w: 0}
        tangentMode: 0
      m_PreInfinity: 2
      m_PostInfinity: 2
      m_RotationOrder: 4
    path: Bip001/Bip001 Spine3/Bip001 Neck/Bip001 L Clavicle/Bip001 L UpperArm/Bip001
      L Forearm/Bip001 L Hand/Bip001 L Finger3/Bip001 L Finger31
  - curve:
      serializedVersion: 2
      m_Curve:
      - serializedVersion: 2
        time: 0
        value: {x: 0.000000024420173, y: -0.0012902382, z: -0.07830268, w: 0.9969288}
        inSlope: {x: 0, y: 0, z: 0, w: 0}
        outSlope: {x: 0, y: 0, z: 0, w: 0}
        tangentMode: 0
      - serializedVersion: 2
        time: 0.033333335
        value: {x: 0.000000024420173, y: -0.0012902382, z: -0.07830268, w: 0.9969288}
        inSlope: {x: 0, y: 0, z: 0, w: 0}
        outSlope: {x: 0, y: 0, z: 0, w: 0}
        tangentMode: 0
      m_PreInfinity: 2
      m_PostInfinity: 2
      m_RotationOrder: 4
    path: Bip001/Bip001 Spine3/Bip001 Neck/Bip001 L Clavicle/Bip001 L UpperArm/Bip001
      L Forearm/Bip001 L Hand/Bip001 L Finger3/Bip001 L Finger31/Bip001 L Finger32
  - curve:
      serializedVersion: 2
      m_Curve:
      - serializedVersion: 2
        time: 0
        value: {x: 0.6760267, y: 0.03261512, z: 0.73187226, w: -0.07929233}
        inSlope: {x: 0.258708, y: -0.052567437, z: -0.2454543, w: -0.053552758}
        outSlope: {x: 0.258708, y: -0.052567437, z: -0.2454543, w: -0.053552758}
        tangentMode: 0
      - serializedVersion: 2
        time: 0.10000001
        value: {x: 0.68458486, y: 0.02771438, z: 0.7236989, w: -0.08267641}
        inSlope: {x: -0.13050109, y: 0.013799493, z: 0.12519836, w: 0.021169113}
        outSlope: {x: -0.13050109, y: 0.013799493, z: 0.12519836, w: 0.021169113}
        tangentMode: 0
      - serializedVersion: 2
        time: 0.33333334
        value: {x: 0.6760831, y: 0.033935152, z: 0.7318302, w: -0.078642905}
        inSlope: {x: 0.2852601, y: -0.03686434, z: -0.26738408, w: -0.047106523}
        outSlope: {x: 0.2852601, y: -0.03686434, z: -0.26738408, w: -0.047106523}
        tangentMode: 0
      - serializedVersion: 2
        time: 0.40000004
        value: {x: 0.68594486, y: 0.028415244, z: 0.7223926, w: -0.0825898}
        inSlope: {x: -0.026691556, y: -0.06311877, z: 0.024335684, w: -0.0310727}
        outSlope: {x: -0.026691556, y: -0.06311877, z: 0.024335684, w: -0.0310727}
        tangentMode: 0
      - serializedVersion: 2
        time: 0.5666667
        value: {x: 0.6648931, y: 0.032282945, z: 0.7421127, w: -0.07838224}
        inSlope: {x: -0.120280966, y: 0.011259955, z: 0.109502956, w: 0.018150944}
        outSlope: {x: -0.120280966, y: 0.011259955, z: 0.109502956, w: 0.018150944}
        tangentMode: 0
      - serializedVersion: 2
        time: 0.70000005
        value: {x: 0.6760263, y: 0.032615297, z: 0.73187244, w: -0.07929354}
        inSlope: {x: 0.211222, y: 0.009202875, z: -0.19526286, w: -0.015133457}
        outSlope: {x: 0.211222, y: 0.009202875, z: -0.19526286, w: -0.015133457}
        tangentMode: 0
      m_PreInfinity: 2
      m_PostInfinity: 2
      m_RotationOrder: 4
    path: Bip001/Bip001 Spine3/Bip001 Neck/Bip001 R Clavicle
  - curve:
      serializedVersion: 2
      m_Curve:
      - serializedVersion: 2
        time: 0
        value: {x: 0.24316078, y: 0.16329572, z: 0.27802566, w: 0.91482735}
        inSlope: {x: -2.444167, y: -1.4269629, z: 0.6843432, w: 0.5366796}
        outSlope: {x: -2.444167, y: -1.4269629, z: 0.6843432, w: 0.5366796}
        tangentMode: 0
      - serializedVersion: 2
        time: 0.033333335
        value: {x: 0.16168855, y: 0.115730286, z: 0.3008371, w: 0.93271667}
        inSlope: {x: -2.1386962, y: -1.2507198, z: 0.48543197, w: 0.40593803}
        outSlope: {x: -2.1386962, y: -1.2507198, z: 0.48543197, w: 0.40593803}
        tangentMode: 0
      - serializedVersion: 2
        time: 0.10000001
        value: {x: 0.088818885, y: 0.0702463, z: 0.304383, w: 0.9457947}
        inSlope: {x: 0.61140394, y: 0.3070596, z: -0.36822575, w: 0.00863491}
        outSlope: {x: 0.61140394, y: 0.3070596, z: -0.36822575, w: 0.00863491}
        tangentMode: 0
      - serializedVersion: 2
        time: 0.16666667
        value: {x: 0.22600804, y: 0.15080662, z: 0.2662045, w: 0.9248313}
        inSlope: {x: 2.5105796, y: 1.3658315, z: -0.6807054, w: -0.6350987}
        outSlope: {x: 2.5105796, y: 1.3658315, z: -0.6807054, w: -0.6350987}
        tangentMode: 0
      - serializedVersion: 2
        time: 0.26666668
        value: {x: 0.37267372, y: 0.22912739, z: 0.21498314, w: 0.87315357}
        inSlope: {x: -0.5085902, y: -0.21132208, z: 0.17717332, w: 0.20339105}
        outSlope: {x: -0.5085902, y: -0.21132208, z: 0.17717332, w: 0.20339105}
        tangentMode: 0
      - serializedVersion: 2
        time: 0.33333334
        value: {x: 0.2498097, y: 0.16455914, z: 0.2639978, w: 0.9169627}
        inSlope: {x: -2.2771084, y: -1.2883811, z: 0.87839246, w: 0.6064225}
        outSlope: {x: -2.2771084, y: -1.2883811, z: 0.87839246, w: 0.6064225}
        tangentMode: 0
      - serializedVersion: 2
        time: 0.40000004
        value: {x: 0.1231359, y: 0.08345423, z: 0.30120173, w: 0.94188666}
        inSlope: {x: -0.81450456, y: -0.5238937, z: -0.039478675, w: 0.19843954}
        outSlope: {x: -0.81450456, y: -0.5238937, z: -0.039478675, w: 0.19843954}
        tangentMode: 0
      - serializedVersion: 2
        time: 0.4666667
        value: {x: 0.1666052, y: 0.11836492, z: 0.26838782, w: 0.9413822}
        inSlope: {x: 1.8090982, y: 1.1880178, z: -0.658271, w: -0.32277012}
        outSlope: {x: 1.8090982, y: 1.1880178, z: -0.658271, w: -0.32277012}
        tangentMode: 0
      - serializedVersion: 2
        time: 0.5
        value: {x: 0.24192657, y: 0.1648322, z: 0.24470614, w: 0.92434883}
        inSlope: {x: 2.3043323, y: 1.4886943, z: -0.6117338, w: -0.7186253}
        outSlope: {x: 2.3043323, y: 1.4886943, z: -0.6117338, w: -0.7186253}
        tangentMode: 0
      - serializedVersion: 2
        time: 0.53333336
        value: {x: 0.32022735, y: 0.21761121, z: 0.22760558, w: 0.89347386}
        inSlope: {x: 2.029517, y: 1.4418305, z: -0.511854, w: -0.9159906}
        outSlope: {x: 2.029517, y: 1.4418305, z: -0.511854, w: -0.9159906}
        tangentMode: 0
      - serializedVersion: 2
        time: 0.6
        value: {x: 0.39706007, y: 0.27382153, z: 0.20449245, w: 0.851791}
        inSlope: {x: -0.06648287, y: -0.15288275, z: 0.16008802, w: 0.034106627}
        outSlope: {x: -0.06648287, y: -0.15288275, z: 0.16008802, w: 0.034106627}
        tangentMode: 0
      - serializedVersion: 2
        time: 0.6666667
        value: {x: 0.3208595, y: 0.21077704, z: 0.24831992, w: 0.889359}
        inSlope: {x: -1.9445205, y: -1.3119965, z: 0.8515634, w: 0.73906034}
        outSlope: {x: -1.9445205, y: -1.3119965, z: 0.8515634, w: 0.73906034}
        tangentMode: 0
      - serializedVersion: 2
        time: 0.70000005
        value: {x: 0.24316086, y: 0.16329567, z: 0.27802595, w: 0.9148272}
        inSlope: {x: -2.330957, y: -1.42444, z: 0.8911802, w: 0.76404625}
        outSlope: {x: -2.330957, y: -1.42444, z: 0.8911802, w: 0.76404625}
        tangentMode: 0
      m_PreInfinity: 2
      m_PostInfinity: 2
      m_RotationOrder: 4
    path: Bip001/Bip001 Spine3/Bip001 Neck/Bip001 R Clavicle/Bip001 R UpperArm
  - curve:
      serializedVersion: 2
      m_Curve:
      - serializedVersion: 2
        time: 0
        value: {x: -0.007076392, y: -0.0062804776, z: 0.6756338, w: 0.7371767}
        inSlope: {x: -0.009609753, y: -0.008530039, z: 0.91907674, w: -0.8790868}
        outSlope: {x: -0.009609753, y: -0.008530039, z: 0.91907674, w: -0.8790868}
        tangentMode: 0
      - serializedVersion: 2
        time: 0.06666667
        value: {x: -0.00755276, y: -0.0067031756, z: 0.72120225, w: 0.692651}
        inSlope: {x: -0.0026600177, y: -0.0023605744, z: 0.25469628, w: -0.26041833}
        outSlope: {x: -0.0026600177, y: -0.0023605744, z: 0.25469628, w: -0.26041833}
        tangentMode: 0
      - serializedVersion: 2
        time: 0.16666667
        value: {x: -0.0071139704, y: -0.0063139442, z: 0.6792353, w: 0.73385894}
        inSlope: {x: 0.011445355, y: 0.010156755, z: -1.0939119, w: 0.9997512}
        outSlope: {x: 0.011445355, y: 0.010156755, z: -1.0939119, w: 0.9997512}
        tangentMode: 0
      - serializedVersion: 2
        time: 0.23333335
        value: {x: -0.006328469, y: -0.005617075, z: 0.604299, w: 0.7967127}
        inSlope: {x: 0.0026717319, y: 0.0023758367, z: -0.2544549, w: 0.20581932}
        outSlope: {x: 0.0026717319, y: 0.0023758367, z: -0.2544549, w: 0.20581932}
        tangentMode: 0
      - serializedVersion: 2
        time: 0.3
        value: {x: -0.00691032, y: -0.0061331755, z: 0.6598475, w: 0.75134283}
        inSlope: {x: -0.01098966, y: -0.009754671, z: 1.0492722, w: -0.91210043}
        outSlope: {x: -0.01098966, y: -0.009754671, z: 1.0492722, w: -0.91210043}
        tangentMode: 0
      - serializedVersion: 2
        time: 0.40000004
        value: {x: -0.0076183835, y: -0.0067614913, z: 0.7275223, w: 0.68600845}
        inSlope: {x: -0.0031691256, y: -0.0028134119, z: 0.30083102, w: -0.31424922}
        outSlope: {x: -0.0031691256, y: -0.0028134119, z: 0.30083102, w: -0.31424922}
        tangentMode: 0
      - serializedVersion: 2
        time: 0.4666667
        value: {x: -0.0074970536, y: -0.0066537457, z: 0.7160377, w: 0.69798964}
        inSlope: {x: 0.007737005, y: 0.0068661245, z: -0.7390331, w: 0.7411288}
        outSlope: {x: 0.007737005, y: 0.0068661245, z: -0.7390331, w: 0.7411288}
        tangentMode: 0
      - serializedVersion: 2
        time: 0.5
        value: {x: -0.007152622, y: -0.0063480968, z: 0.682938, w: 0.73041373}
        inSlope: {x: 0.012210678, y: 0.010838756, z: -1.1696076, w: 1.0791296}
        outSlope: {x: 0.012210678, y: 0.010838756, z: -1.1696076, w: 1.0791296}
        tangentMode: 0
      - serializedVersion: 2
        time: 0.53333336
        value: {x: -0.0066830083, y: -0.005931162, z: 0.63806385, w: 0.7699316}
        inSlope: {x: 0.009498078, y: 0.008425196, z: -0.9066351, w: 0.7824149}
        outSlope: {x: 0.009498078, y: 0.008425196, z: -0.9066351, w: 0.7824149}
        tangentMode: 0
      - serializedVersion: 2
        time: 0.6
        value: {x: -0.0065729027, y: -0.005833544, z: 0.62760746, w: 0.77848035}
        inSlope: {x: -0.0010443648, y: -0.00092284806, z: 0.09943044, w: -0.07979934}
        outSlope: {x: -0.0010443648, y: -0.00092284806, z: 0.09943044, w: -0.07979934}
        tangentMode: 0
      - serializedVersion: 2
        time: 0.6666667
        value: {x: -0.0067491503, y: -0.0059901695, z: 0.64436996, w: 0.76466066}
        inSlope: {x: -0.007305239, y: -0.0064855376, z: 0.69763345, w: -0.6011633}
        outSlope: {x: -0.007305239, y: -0.0064855376, z: 0.69763345, w: -0.6011633}
        tangentMode: 0
      - serializedVersion: 2
        time: 0.70000005
        value: {x: -0.0070760567, y: -0.006280309, z: 0.6756332, w: 0.73717725}
        inSlope: {x: -0.009807182, y: -0.00870418, z: 0.9378962, w: -0.8245014}
        outSlope: {x: -0.009807182, y: -0.00870418, z: 0.9378962, w: -0.8245014}
        tangentMode: 0
      m_PreInfinity: 2
      m_PostInfinity: 2
      m_RotationOrder: 4
    path: Bip001/Bip001 Spine3/Bip001 Neck/Bip001 R Clavicle/Bip001 R UpperArm/Bip001
      R Forearm
  - curve:
      serializedVersion: 2
      m_Curve:
      - serializedVersion: 2
        time: 0
        value: {x: 0.42698222, y: -0.24995914, z: 0.10826427, w: 0.86225605}
        inSlope: {x: -1.7934241, y: 1.5367823, z: -0.8763523, w: 1.2888478}
        outSlope: {x: -1.7934241, y: 1.5367823, z: -0.8763523, w: 1.2888478}
        tangentMode: 0
      - serializedVersion: 2
        time: 0.033333335
        value: {x: 0.36720142, y: -0.19873306, z: 0.07905252, w: 0.90521765}
        inSlope: {x: -1.9509735, y: 1.1206876, z: -0.5622596, w: 1.1063432}
        outSlope: {x: -1.9509735, y: 1.1206876, z: -0.5622596, w: 1.1063432}
        tangentMode: 0
      - serializedVersion: 2
        time: 0.10000001
        value: {x: 0.2561715, y: -0.17890237, z: 0.08932792, w: 0.9457223}
        inSlope: {x: -0.31637895, y: -0.39579794, z: 0.63681364, w: -0.045559153}
        outSlope: {x: -0.31637895, y: -0.39579794, z: 0.63681364, w: -0.045559153}
        tangentMode: 0
      - serializedVersion: 2
        time: 0.16666667
        value: {x: 0.34119427, y: -0.23809959, z: 0.15173179, w: 0.8965894}
        inSlope: {x: 2.2960393, y: -1.0499116, z: 1.4635861, w: -1.464206}
        outSlope: {x: 2.2960393, y: -1.0499116, z: 1.4635861, w: -1.464206}
        tangentMode: 0
      - serializedVersion: 2
        time: 0.20000002
        value: {x: 0.4288947, y: -0.27162728, z: 0.21080697, w: 0.83536124}
        inSlope: {x: 2.1089566, y: -0.7626124, z: 1.1397523, w: -1.5190187}
        outSlope: {x: 2.1089566, y: -0.7626124, z: 1.1397523, w: -1.5190187}
        tangentMode: 0
      - serializedVersion: 2
        time: 0.23333335
        value: {x: 0.4817914, y: -0.28894043, z: 0.2277153, w: 0.79532146}
        inSlope: {x: 0.8561035, y: -0.17572138, z: -0.24162525, w: -0.47761565}
        outSlope: {x: 0.8561035, y: -0.17572138, z: -0.24162525, w: -0.47761565}
        tangentMode: 0
      - serializedVersion: 2
        time: 0.3
        value: {x: 0.47027406, y: -0.2504269, z: 0.14031167, w: 0.8345306}
        inSlope: {x: -0.74129647, y: 1.2787027, z: -1.6751521, w: 1.0521771}
        outSlope: {x: -0.74129647, y: 1.2787027, z: -1.6751521, w: 1.0521771}
        tangentMode: 0
      - serializedVersion: 2
        time: 0.36666667
        value: {x: 0.38040924, y: -0.1469063, z: 0.048866965, w: 0.9117672}
        inSlope: {x: -1.7097524, y: 1.1996999, z: -0.6328549, w: 0.9689325}
        outSlope: {x: -1.7097524, y: 1.1996999, z: -0.6328549, w: 0.9689325}
        tangentMode: 0
      - serializedVersion: 2
        time: 0.40000004
        value: {x: 0.32256496, y: -0.11811518, z: 0.040831488, w: 0.93826085}
        inSlope: {x: -1.1767962, y: 0.24558313, z: 0.10963222, w: 0.46354976}
        outSlope: {x: -1.1767962, y: 0.24558313, z: 0.10963222, w: 0.46354976}
        tangentMode: 0
      - serializedVersion: 2
        time: 0.4666667
        value: {x: 0.3358969, y: -0.16998853, z: 0.078445435, w: 0.92310536}
        inSlope: {x: 1.6932707, y: -1.2027774, z: 0.7648764, w: -0.9603611}
        outSlope: {x: 1.6932707, y: -1.2027774, z: 0.7648764, w: -0.9603611}
        tangentMode: 0
      - serializedVersion: 2
        time: 0.5
        value: {x: 0.41484076, y: -0.21071918, z: 0.107167505, w: 0.8786465}
        inSlope: {x: 2.2215059, y: -0.98304975, z: 0.7805464, w: -1.3573436}
        outSlope: {x: 2.2215059, y: -0.98304975, z: 0.7805464, w: -1.3573436}
        tangentMode: 0
      - serializedVersion: 2
        time: 0.53333336
        value: {x: 0.4839973, y: -0.23552516, z: 0.13048185, w: 0.8326158}
        inSlope: {x: 1.5182801, y: -0.88303185, z: 0.5943177, w: -1.1847789}
        outSlope: {x: 1.5182801, y: -0.88303185, z: 0.5943177, w: -1.1847789}
        tangentMode: 0
      - serializedVersion: 2
        time: 0.5666667
        value: {x: 0.5160595, y: -0.26958802, z: 0.14678872, w: 0.79966116}
        inSlope: {x: 0.6381742, y: -0.88711333, z: 0.4817889, w: -0.778798}
        outSlope: {x: 0.6381742, y: -0.88711333, z: 0.4817889, w: -0.778798}
        tangentMode: 0
      - serializedVersion: 2
        time: 0.6
        value: {x: 0.52654225, y: -0.29466605, z: 0.16260111, w: 0.7806959}
        inSlope: {x: -0.123114794, y: -0.22195731, z: 0.25761834, w: -0.048214063}
        outSlope: {x: -0.123114794, y: -0.22195731, z: 0.25761834, w: -0.048214063}
        tangentMode: 0
      - serializedVersion: 2
        time: 0.6333334
        value: {x: 0.50785184, y: -0.28438514, z: 0.16396326, w: 0.7964469}
        inSlope: {x: -0.9265574, y: 0.294988, z: -0.23545732, w: 0.72040224}
        outSlope: {x: -0.9265574, y: 0.294988, z: -0.23545732, w: 0.72040224}
        tangentMode: 0
      - serializedVersion: 2
        time: 0.6666667
        value: {x: 0.46477178, y: -0.27500018, z: 0.14690398, w: 0.8287227}
        inSlope: {x: -1.213043, y: 0.5163843, z: -0.83548486, w: 0.98713434}
        outSlope: {x: -1.213043, y: 0.5163843, z: -0.83548486, w: 0.98713434}
        tangentMode: 0
      - serializedVersion: 2
        time: 0.70000005
        value: {x: 0.4269823, y: -0.24995951, z: 0.10826425, w: 0.8622559}
        inSlope: {x: -1.133683, y: 0.7512195, z: -1.1591908, w: 1.0059938}
        outSlope: {x: -1.133683, y: 0.7512195, z: -1.1591908, w: 1.0059938}
        tangentMode: 0
      m_PreInfinity: 2
      m_PostInfinity: 2
      m_RotationOrder: 4
    path: Bip001/Bip001 Spine3/Bip001 Neck/Bip001 R Clavicle/Bip001 R UpperArm/Bip001
      R Forearm/Bip001 R Hand
  - curve:
      serializedVersion: 2
      m_Curve:
      - serializedVersion: 2
        time: 0
        value: {x: -0.4542662, y: 0.25477695, z: -0.013254694, w: 0.8535545}
        inSlope: {x: 0, y: 0, z: 0, w: 0}
        outSlope: {x: 0, y: 0, z: 0, w: 0}
        tangentMode: 0
      - serializedVersion: 2
        time: 0.033333335
        value: {x: -0.4542662, y: 0.25477695, z: -0.013254694, w: 0.8535545}
        inSlope: {x: 0, y: 0, z: 0, w: 0}
        outSlope: {x: 0, y: 0, z: 0, w: 0}
        tangentMode: 0
      m_PreInfinity: 2
      m_PostInfinity: 2
      m_RotationOrder: 4
    path: Bip001/Bip001 Spine3/Bip001 Neck/Bip001 R Clavicle/Bip001 R UpperArm/Bip001
      R Forearm/Bip001 R Hand/Bip001 R Finger0
  - curve:
      serializedVersion: 2
      m_Curve:
      - serializedVersion: 2
        time: 0
        value: {x: 0.000000018525757, y: -0.06699756, z: -0.122221805, w: 0.99023896}
        inSlope: {x: 0, y: 0, z: 0, w: 0}
        outSlope: {x: 0, y: 0, z: 0, w: 0}
        tangentMode: 0
      - serializedVersion: 2
        time: 0.033333335
        value: {x: 0.000000018525757, y: -0.06699756, z: -0.122221805, w: 0.99023896}
        inSlope: {x: 0, y: 0, z: 0, w: 0}
        outSlope: {x: 0, y: 0, z: 0, w: 0}
        tangentMode: 0
      m_PreInfinity: 2
      m_PostInfinity: 2
      m_RotationOrder: 4
    path: Bip001/Bip001 Spine3/Bip001 Neck/Bip001 R Clavicle/Bip001 R UpperArm/Bip001
      R Forearm/Bip001 R Hand/Bip001 R Finger0/Bip001 R Finger01
  - curve:
      serializedVersion: 2
      m_Curve:
      - serializedVersion: 2
        time: 0
        value: {x: 0.00000012393657, y: -0.14173147, z: 0.016434446, w: 0.98976874}
        inSlope: {x: 0, y: 0, z: 0, w: 0}
        outSlope: {x: 0, y: 0, z: 0, w: 0}
        tangentMode: 0
      - serializedVersion: 2
        time: 0.033333335
        value: {x: 0.00000012393657, y: -0.14173147, z: 0.016434446, w: 0.98976874}
        inSlope: {x: 0, y: 0, z: 0, w: 0}
        outSlope: {x: 0, y: 0, z: 0, w: 0}
        tangentMode: 0
      m_PreInfinity: 2
      m_PostInfinity: 2
      m_RotationOrder: 4
    path: Bip001/Bip001 Spine3/Bip001 Neck/Bip001 R Clavicle/Bip001 R UpperArm/Bip001
      R Forearm/Bip001 R Hand/Bip001 R Finger0/Bip001 R Finger01/Bip001 R Finger02
  - curve:
      serializedVersion: 2
      m_Curve:
      - serializedVersion: 2
        time: 0
        value: {x: 0.0031220925, y: -0.03107666, z: -0.09216558, w: 0.99525374}
        inSlope: {x: 0, y: 0, z: 0, w: 0}
        outSlope: {x: 0, y: 0, z: 0, w: 0}
        tangentMode: 0
      - serializedVersion: 2
        time: 0.033333335
        value: {x: 0.0031220925, y: -0.03107666, z: -0.09216558, w: 0.99525374}
        inSlope: {x: 0, y: 0, z: 0, w: 0}
        outSlope: {x: 0, y: 0, z: 0, w: 0}
        tangentMode: 0
      m_PreInfinity: 2
      m_PostInfinity: 2
      m_RotationOrder: 4
    path: Bip001/Bip001 Spine3/Bip001 Neck/Bip001 R Clavicle/Bip001 R UpperArm/Bip001
      R Forearm/Bip001 R Hand/Bip001 R Finger1
  - curve:
      serializedVersion: 2
      m_Curve:
      - serializedVersion: 2
        time: 0
        value: {x: -0.000000083620634, y: 0.0025655546, z: -0.06872428, w: 0.9976324}
        inSlope: {x: 0, y: 0, z: 0, w: 0}
        outSlope: {x: 0, y: 0, z: 0, w: 0}
        tangentMode: 0
      - serializedVersion: 2
        time: 0.033333335
        value: {x: -0.000000083620634, y: 0.0025655546, z: -0.06872428, w: 0.9976324}
        inSlope: {x: 0, y: 0, z: 0, w: 0}
        outSlope: {x: 0, y: 0, z: 0, w: 0}
        tangentMode: 0
      m_PreInfinity: 2
      m_PostInfinity: 2
      m_RotationOrder: 4
    path: Bip001/Bip001 Spine3/Bip001 Neck/Bip001 R Clavicle/Bip001 R UpperArm/Bip001
      R Forearm/Bip001 R Hand/Bip001 R Finger1/Bip001 R Finger11
  - curve:
      serializedVersion: 2
      m_Curve:
      - serializedVersion: 2
        time: 0
        value: {x: -0.000000038839264, y: 0.0025653867, z: -0.06872422, w: 0.9976324}
        inSlope: {x: 0, y: 0, z: 0, w: 0}
        outSlope: {x: 0, y: 0, z: 0, w: 0}
        tangentMode: 0
      - serializedVersion: 2
        time: 0.033333335
        value: {x: -0.000000038839264, y: 0.0025653867, z: -0.06872422, w: 0.9976324}
        inSlope: {x: 0, y: 0, z: 0, w: 0}
        outSlope: {x: 0, y: 0, z: 0, w: 0}
        tangentMode: 0
      m_PreInfinity: 2
      m_PostInfinity: 2
      m_RotationOrder: 4
    path: Bip001/Bip001 Spine3/Bip001 Neck/Bip001 R Clavicle/Bip001 R UpperArm/Bip001
      R Forearm/Bip001 R Hand/Bip001 R Finger1/Bip001 R Finger11/Bip001 R Finger12
  - curve:
      serializedVersion: 2
      m_Curve:
      - serializedVersion: 2
        time: 0
        value: {x: 0.0051335897, y: -0.006186263, z: -0.091138944, w: 0.99580574}
        inSlope: {x: 0, y: 0, z: 0, w: 0}
        outSlope: {x: 0, y: 0, z: 0, w: 0}
        tangentMode: 0
      - serializedVersion: 2
        time: 0.033333335
        value: {x: 0.0051335897, y: -0.006186263, z: -0.091138944, w: 0.99580574}
        inSlope: {x: 0, y: 0, z: 0, w: 0}
        outSlope: {x: 0, y: 0, z: 0, w: 0}
        tangentMode: 0
      m_PreInfinity: 2
      m_PostInfinity: 2
      m_RotationOrder: 4
    path: Bip001/Bip001 Spine3/Bip001 Neck/Bip001 R Clavicle/Bip001 R UpperArm/Bip001
      R Forearm/Bip001 R Hand/Bip001 R Finger2
  - curve:
      serializedVersion: 2
      m_Curve:
      - serializedVersion: 2
        time: 0
        value: {x: 0.00000010628609, y: 0.0025654607, z: -0.06872409, w: 0.99763244}
        inSlope: {x: 0, y: 0, z: 0, w: 0}
        outSlope: {x: 0, y: 0, z: 0, w: 0}
        tangentMode: 0
      - serializedVersion: 2
        time: 0.033333335
        value: {x: 0.00000010628609, y: 0.0025654607, z: -0.06872409, w: 0.99763244}
        inSlope: {x: 0, y: 0, z: 0, w: 0}
        outSlope: {x: 0, y: 0, z: 0, w: 0}
        tangentMode: 0
      m_PreInfinity: 2
      m_PostInfinity: 2
      m_RotationOrder: 4
    path: Bip001/Bip001 Spine3/Bip001 Neck/Bip001 R Clavicle/Bip001 R UpperArm/Bip001
      R Forearm/Bip001 R Hand/Bip001 R Finger2/Bip001 R Finger21
  - curve:
      serializedVersion: 2
      m_Curve:
      - serializedVersion: 2
        time: 0
        value: {x: -0.000000051816667, y: 0.002565654, z: -0.06872421, w: 0.99763244}
        inSlope: {x: 0, y: 0, z: 0, w: 0}
        outSlope: {x: 0, y: 0, z: 0, w: 0}
        tangentMode: 0
      - serializedVersion: 2
        time: 0.033333335
        value: {x: -0.000000051816667, y: 0.002565654, z: -0.06872421, w: 0.99763244}
        inSlope: {x: 0, y: 0, z: 0, w: 0}
        outSlope: {x: 0, y: 0, z: 0, w: 0}
        tangentMode: 0
      m_PreInfinity: 2
      m_PostInfinity: 2
      m_RotationOrder: 4
    path: Bip001/Bip001 Spine3/Bip001 Neck/Bip001 R Clavicle/Bip001 R UpperArm/Bip001
      R Forearm/Bip001 R Hand/Bip001 R Finger2/Bip001 R Finger21/Bip001 R Finger22
  - curve:
      serializedVersion: 2
      m_Curve:
      - serializedVersion: 2
        time: 0
        value: {x: 0.0044256668, y: -0.014952154, z: -0.09150719, w: 0.9956823}
        inSlope: {x: 0, y: 0, z: 0, w: 0}
        outSlope: {x: 0, y: 0, z: 0, w: 0}
        tangentMode: 0
      - serializedVersion: 2
        time: 0.033333335
        value: {x: 0.0044256668, y: -0.014952154, z: -0.09150719, w: 0.9956823}
        inSlope: {x: 0, y: 0, z: 0, w: 0}
        outSlope: {x: 0, y: 0, z: 0, w: 0}
        tangentMode: 0
      m_PreInfinity: 2
      m_PostInfinity: 2
      m_RotationOrder: 4
    path: Bip001/Bip001 Spine3/Bip001 Neck/Bip001 R Clavicle/Bip001 R UpperArm/Bip001
      R Forearm/Bip001 R Hand/Bip001 R Finger3
  - curve:
      serializedVersion: 2
      m_Curve:
      - serializedVersion: 2
        time: 0
        value: {x: 0.000000058779413, y: 0.0051250476, z: -0.1372882, w: 0.9905179}
        inSlope: {x: 0, y: 0, z: 0, w: 0}
        outSlope: {x: 0, y: 0, z: 0, w: 0}
        tangentMode: 0
      - serializedVersion: 2
        time: 0.033333335
        value: {x: 0.000000058779413, y: 0.0051250476, z: -0.1372882, w: 0.9905179}
        inSlope: {x: 0, y: 0, z: 0, w: 0}
        outSlope: {x: 0, y: 0, z: 0, w: 0}
        tangentMode: 0
      m_PreInfinity: 2
      m_PostInfinity: 2
      m_RotationOrder: 4
    path: Bip001/Bip001 Spine3/Bip001 Neck/Bip001 R Clavicle/Bip001 R UpperArm/Bip001
      R Forearm/Bip001 R Hand/Bip001 R Finger3/Bip001 R Finger31
  - curve:
      serializedVersion: 2
      m_Curve:
      - serializedVersion: 2
        time: 0
        value: {x: 0.00000009410186, y: 0.0025654805, z: -0.068724, w: 0.99763244}
        inSlope: {x: 0, y: 0, z: 0, w: 0}
        outSlope: {x: 0, y: 0, z: 0, w: 0}
        tangentMode: 0
      - serializedVersion: 2
        time: 0.033333335
        value: {x: 0.00000009410186, y: 0.0025654805, z: -0.068724, w: 0.99763244}
        inSlope: {x: 0, y: 0, z: 0, w: 0}
        outSlope: {x: 0, y: 0, z: 0, w: 0}
        tangentMode: 0
      m_PreInfinity: 2
      m_PostInfinity: 2
      m_RotationOrder: 4
    path: Bip001/Bip001 Spine3/Bip001 Neck/Bip001 R Clavicle/Bip001 R UpperArm/Bip001
      R Forearm/Bip001 R Hand/Bip001 R Finger3/Bip001 R Finger31/Bip001 R Finger32
  - curve:
      serializedVersion: 2
      m_Curve:
      - serializedVersion: 2
        time: 0
        value: {x: 0.039030463, y: 0.0041551283, z: 0.08054384, w: 0.99597794}
        inSlope: {x: -0.07487587, y: -0.16518596, z: 0.16036591, w: -0.010328292}
        outSlope: {x: -0.07487587, y: -0.16518596, z: 0.16036591, w: -0.010328292}
        tangentMode: 0
      - serializedVersion: 2
        time: 0.16666667
        value: {x: 0.038267914, y: 0.009898115, z: 0.07906597, w: 0.99608546}
        inSlope: {x: 0.05356404, y: 0.20758927, z: -0.25383037, w: 0.015896557}
        outSlope: {x: 0.05356404, y: 0.20758927, z: -0.25383037, w: 0.015896557}
        tangentMode: 0
      - serializedVersion: 2
        time: 0.26666668
        value: {x: 0.041256063, y: 0.018156972, z: 0.066492625, w: 0.9967683}
        inSlope: {x: -0.02133826, y: -0.17672676, z: 0.051175993, w: 0.00010192394}
        outSlope: {x: -0.02133826, y: -0.17672676, z: 0.051175993, w: 0.00010192394}
        tangentMode: 0
      - serializedVersion: 2
        time: 0.43333337
        value: {x: 0.03619632, y: -0.0020008462, z: 0.08508434, w: 0.99571407}
        inSlope: {x: 0.061011933, y: 0.13870436, z: 0.0016760454, w: -0.0024497511}
        outSlope: {x: 0.061011933, y: 0.13870436, z: 0.0016760454, w: -0.0024497511}
        tangentMode: 0
      - serializedVersion: 2
        time: 0.6
        value: {x: 0.050350886, y: 0.029147767, z: 0.06761722, w: 0.9960136}
        inSlope: {x: -0.057013787, y: -0.09434411, z: 0.012118287, w: 0.0044417377}
        outSlope: {x: -0.057013787, y: -0.09434411, z: 0.012118287, w: 0.0044417377}
        tangentMode: 0
      - serializedVersion: 2
        time: 0.70000005
        value: {x: 0.039031032, y: 0.0041547236, z: 0.08054382, w: 0.99597794}
        inSlope: {x: -0.11561328, y: -0.27362108, z: 0.18423744, w: -0.0071811615}
        outSlope: {x: -0.11561328, y: -0.27362108, z: 0.18423744, w: -0.0071811615}
        tangentMode: 0
      m_PreInfinity: 2
      m_PostInfinity: 2
      m_RotationOrder: 4
    path: Bip001/Bip001 Spine3/Bip001 Neck/Bip001 Head
  m_CompressedRotationCurves: []
  m_EulerCurves: []
  m_PositionCurves:
  - curve:
      serializedVersion: 2
      m_Curve:
      - serializedVersion: 2
        time: 0
        value: {x: 0.000023244796, y: 0.017326407, z: -0.000013633005}
        inSlope: {x: 0.0008671404, y: -0.00036628748, z: -0.0005780646}
        outSlope: {x: 0.0008671404, y: -0.00036628748, z: -0.0005780646}
        tangentMode: 0
      - serializedVersion: 2
        time: 0.033333335
        value: {x: 0.000052149495, y: 0.017314207, z: -0.000032901822}
        inSlope: {x: 0.0011884962, y: -0.0004492231, z: -0.00038950157}
        outSlope: {x: 0.001188497, y: -0.00044927074, z: -0.0003895023}
        tangentMode: 0
      - serializedVersion: 2
        time: 0.06666667
        value: {x: 0.00010247792, y: 0.01729647, z: -0.0000395998}
        inSlope: {x: 0.0011840964, y: -0.00045148464, z: 0.000040854185}
        outSlope: {x: 0.0011840978, y: -0.00045134677, z: 0.000040855313}
        tangentMode: 0
      - serializedVersion: 2
        time: 0.1
        value: {x: 0.0001310893, y: 0.017284112, z: -0.000030178186}
        inSlope: {x: 0.00036538945, y: -0.000091675305, z: 0.00042331457}
        outSlope: {x: 0.00036539132, y: -0.00009222202, z: 0.0004233143}
        tangentMode: 0
      - serializedVersion: 2
        time: 0.13333334
        value: {x: 0.00012683729, y: 0.017290348, z: -0.000011378843}
        inSlope: {x: 0.000010522912, y: 0.0003582187, z: 0.00049450324}
        outSlope: {x: 0.000010525619, y: 0.00035862747, z: 0.000494505}
        tangentMode: 0
      - serializedVersion: 2
        time: 0.16666667
        value: {x: 0.00013179088, y: 0.017308017, z: 0.0000027887168}
        inSlope: {x: 0.0003462634, y: 0.0005294373, z: 0.00031952574}
        outSlope: {x: 0.00034626518, y: 0.00052956166, z: 0.00031952592}
        tangentMode: 0
      - serializedVersion: 2
        time: 0.2
        value: {x: 0.00014992143, y: 0.017325643, z: 0.000009922827}
        inSlope: {x: 0.000502601, y: 0.00030783238, z: 0.000091854294}
        outSlope: {x: 0.00050260295, y: 0.00030777112, z: 0.00009185373}
        tangentMode: 0
      - serializedVersion: 2
        time: 0.23333333
        value: {x: 0.00016529753, y: 0.017328527, z: 0.000008912302}
        inSlope: {x: 0.00016776056, y: -0.00004679136, z: -0.00010575105}
        outSlope: {x: 0.00016776097, y: -0.000046803223, z: -0.00010575075}
        tangentMode: 0
      - serializedVersion: 2
        time: 0.26666668
        value: {x: 0.0001611052, y: 0.017322509, z: 0.0000028727623}
        inSlope: {x: -0.00037827322, y: -0.0000963602, z: -0.00009741586}
        outSlope: {x: -0.00037827785, y: -0.00009653227, z: -0.000097417156}
        tangentMode: 0
      - serializedVersion: 2
        time: 0.3
        value: {x: 0.0001400789, y: 0.017322088, z: 0.0000024178396}
        inSlope: {x: -0.0007663985, y: 0.0000918184, z: 0.00033070846}
        outSlope: {x: -0.00076639926, y: 0.00009182348, z: 0.00033070726}
        tangentMode: 0
      - serializedVersion: 2
        time: 0.33333334
        value: {x: 0.00011001175, y: 0.017328631, z: 0.000024920006}
        inSlope: {x: -0.00096981076, y: 0.00005282501, z: 0.0005514784}
        outSlope: {x: -0.0009698137, y: 0.000052990243, z: 0.00055148185}
        tangentMode: 0
      - serializedVersion: 2
        time: 0.36666667
        value: {x: 0.00007542447, y: 0.017325616, z: 0.00003918332}
        inSlope: {x: -0.0010172181, y: -0.00024605478, z: -0.00019896995}
        outSlope: {x: -0.0010172195, y: -0.00024606494, z: -0.00019896585}
        tangentMode: 0
      - serializedVersion: 2
        time: 0.4
        value: {x: 0.000042196894, y: 0.017312216, z: 0.000011655453}
        inSlope: {x: -0.0009181827, y: -0.0003169093, z: -0.0010049174}
        outSlope: {x: -0.0009181865, y: -0.00031723632, z: -0.0010049186}
        tangentMode: 0
      - serializedVersion: 2
        time: 0.43333334
        value: {x: 0.000014211925, y: 0.017304478, z: -0.000027811457}
        inSlope: {x: -0.00077461934, y: -0.0000001396131, z: -0.00065288483}
        outSlope: {x: -0.0007746202, y: -0.00000014478847, z: -0.0006528891}
        tangentMode: 0
      - serializedVersion: 2
        time: 0.46666667
        value: {x: -0.000009444587, y: 0.017312214, z: -0.000031870513}
        inSlope: {x: -0.0003497252, y: 0.00024082827, z: 0.00004905078}
        outSlope: {x: -0.00034972778, y: 0.00024072781, z: 0.00004904922}
        tangentMode: 0
      - serializedVersion: 2
        time: 0.5
        value: {x: -0.000009103254, y: 0.017320542, z: -0.000024541423}
        inSlope: {x: 0.0002867205, y: 0.00020462442, z: 0.00025803503}
        outSlope: {x: 0.00028671676, y: 0.00020484564, z: 0.0002580339}
        tangentMode: 0
      - serializedVersion: 2
        time: 0.53333336
        value: {x: 0.00000967014, y: 0.017325865, z: -0.0000146680895}
        inSlope: {x: 0.0007586983, y: 0.00015988675, z: 0.00040094904}
        outSlope: {x: 0.00075871043, y: 0.00015988873, z: 0.00040095503}
        tangentMode: 0
      - serializedVersion: 2
        time: 0.56666666
        value: {x: 0.00004147713, y: 0.017331196, z: 0.0000021887508}
        inSlope: {x: 0.0006520353, y: 0.00014371032, z: 0.00049180945}
        outSlope: {x: 0.00065203186, y: 0.0001436147, z: 0.0004918045}
        tangentMode: 0
      - serializedVersion: 2
        time: 0.6
        value: {x: 0.000053139127, y: 0.017335443, z: 0.000018119157}
        inSlope: {x: -0.000053287982, y: 0.00007804965, z: 0.00017391867}
        outSlope: {x: -0.00005328791, y: 0.00007823712, z: 0.00017392365}
        tangentMode: 0
      - serializedVersion: 2
        time: 0.6333333
        value: {x: 0.000037924732, y: 0.01733642, z: 0.000013783659}
        inSlope: {x: -0.0004892434, y: -0.000048295136, z: -0.0002425321}
        outSlope: {x: -0.0004892368, y: -0.00004838529, z: -0.00024252897}
        tangentMode: 0
      - serializedVersion: 2
        time: 0.6666667
        value: {x: 0.000020523017, y: 0.017332222, z: 0.0000019503727}
        inSlope: {x: -0.00022012474, y: -0.00015022399, z: -0.0004112592}
        outSlope: {x: -0.0002201295, y: -0.0001503605, z: -0.0004112648}
        tangentMode: 0
      - serializedVersion: 2
        time: 0.7
        value: {x: 0.000023249415, y: 0.017326409, z: -0.000013633889}
        inSlope: {x: 0.00008179224, y: -0.00017454298, z: -0.00046752888}
        outSlope: {x: 0.00008179224, y: -0.00017454298, z: -0.00046752888}
        tangentMode: 0
      m_PreInfinity: 2
      m_PostInfinity: 2
      m_RotationOrder: 4
    path: Bip001
  m_ScaleCurves:
  - curve:
      serializedVersion: 2
      m_Curve:
      - serializedVersion: 2
        time: 0
        value: {x: 0.99999994, y: 0.99999994, z: 1}
        inSlope: {x: 0, y: 0, z: 0}
        outSlope: {x: 0, y: 0, z: 0}
        tangentMode: 0
      - serializedVersion: 2
        time: 0.70000005
        value: {x: 0.99999994, y: 0.99999994, z: 1}
        inSlope: {x: 0, y: 0, z: 0}
        outSlope: {x: 0, y: 0, z: 0}
        tangentMode: 0
      m_PreInfinity: 2
      m_PostInfinity: 2
      m_RotationOrder: 4
    path: Bip001
  m_FloatCurves: []
  m_PPtrCurves: []
  m_SampleRate: 30
  m_WrapMode: 0
  m_Bounds:
    m_Center: {x: 0, y: 0, z: 0}
    m_Extent: {x: 0, y: 0, z: 0}
  m_ClipBindingConstant:
    genericBindings:
    - serializedVersion: 2
      path: 2797366333
      attribute: 1
      script: {fileID: 0}
      typeID: 4
      customType: 0
      isPPtrCurve: 0
    - serializedVersion: 2
      path: 2797366333
      attribute: 2
      script: {fileID: 0}
      typeID: 4
      customType: 0
      isPPtrCurve: 0
    - serializedVersion: 2
      path: 3114143151
      attribute: 2
      script: {fileID: 0}
      typeID: 4
      customType: 0
      isPPtrCurve: 0
    - serializedVersion: 2
      path: 4138384465
      attribute: 2
      script: {fileID: 0}
      typeID: 4
      customType: 0
      isPPtrCurve: 0
    - serializedVersion: 2
      path: 2581838634
      attribute: 2
      script: {fileID: 0}
      typeID: 4
      customType: 0
      isPPtrCurve: 0
    - serializedVersion: 2
      path: 2390747708
      attribute: 2
      script: {fileID: 0}
      typeID: 4
      customType: 0
      isPPtrCurve: 0
    - serializedVersion: 2
      path: 1465762278
      attribute: 2
      script: {fileID: 0}
      typeID: 4
      customType: 0
      isPPtrCurve: 0
    - serializedVersion: 2
      path: 275359678
      attribute: 2
      script: {fileID: 0}
      typeID: 4
      customType: 0
      isPPtrCurve: 0
    - serializedVersion: 2
      path: 753382419
      attribute: 2
      script: {fileID: 0}
      typeID: 4
      customType: 0
      isPPtrCurve: 0
    - serializedVersion: 2
      path: 3842256967
      attribute: 2
      script: {fileID: 0}
      typeID: 4
      customType: 0
      isPPtrCurve: 0
    - serializedVersion: 2
      path: 733578797
      attribute: 2
      script: {fileID: 0}
      typeID: 4
      customType: 0
      isPPtrCurve: 0
    - serializedVersion: 2
      path: 2755011311
      attribute: 2
      script: {fileID: 0}
      typeID: 4
      customType: 0
      isPPtrCurve: 0
    - serializedVersion: 2
      path: 840199771
      attribute: 2
      script: {fileID: 0}
      typeID: 4
      customType: 0
      isPPtrCurve: 0
    - serializedVersion: 2
      path: 3760875656
      attribute: 2
      script: {fileID: 0}
      typeID: 4
      customType: 0
      isPPtrCurve: 0
    - serializedVersion: 2
      path: 316553078
      attribute: 2
      script: {fileID: 0}
      typeID: 4
      customType: 0
      isPPtrCurve: 0
    - serializedVersion: 2
      path: 2384307394
      attribute: 2
      script: {fileID: 0}
      typeID: 4
      customType: 0
      isPPtrCurve: 0
    - serializedVersion: 2
      path: 738580579
      attribute: 2
      script: {fileID: 0}
      typeID: 4
      customType: 0
      isPPtrCurve: 0
    - serializedVersion: 2
      path: 766642266
      attribute: 2
      script: {fileID: 0}
      typeID: 4
      customType: 0
      isPPtrCurve: 0
    - serializedVersion: 2
      path: 1376924807
      attribute: 2
      script: {fileID: 0}
      typeID: 4
      customType: 0
      isPPtrCurve: 0
    - serializedVersion: 2
      path: 4260483625
      attribute: 2
      script: {fileID: 0}
      typeID: 4
      customType: 0
      isPPtrCurve: 0
    - serializedVersion: 2
      path: 2215216970
      attribute: 2
      script: {fileID: 0}
      typeID: 4
      customType: 0
      isPPtrCurve: 0
    - serializedVersion: 2
      path: 916886706
      attribute: 2
      script: {fileID: 0}
      typeID: 4
      customType: 0
      isPPtrCurve: 0
    - serializedVersion: 2
      path: 1584343122
      attribute: 2
      script: {fileID: 0}
      typeID: 4
      customType: 0
      isPPtrCurve: 0
    - serializedVersion: 2
      path: 859800726
      attribute: 2
      script: {fileID: 0}
      typeID: 4
      customType: 0
      isPPtrCurve: 0
    - serializedVersion: 2
      path: 700420873
      attribute: 2
      script: {fileID: 0}
      typeID: 4
      customType: 0
      isPPtrCurve: 0
    - serializedVersion: 2
      path: 3794746292
      attribute: 2
      script: {fileID: 0}
      typeID: 4
      customType: 0
      isPPtrCurve: 0
    - serializedVersion: 2
      path: 3345936274
      attribute: 2
      script: {fileID: 0}
      typeID: 4
      customType: 0
      isPPtrCurve: 0
    - serializedVersion: 2
      path: 1589158815
      attribute: 2
      script: {fileID: 0}
      typeID: 4
      customType: 0
      isPPtrCurve: 0
    - serializedVersion: 2
      path: 752257709
      attribute: 2
      script: {fileID: 0}
      typeID: 4
      customType: 0
      isPPtrCurve: 0
    - serializedVersion: 2
      path: 1004728970
      attribute: 2
      script: {fileID: 0}
      typeID: 4
      customType: 0
      isPPtrCurve: 0
    - serializedVersion: 2
      path: 3350327845
      attribute: 2
      script: {fileID: 0}
      typeID: 4
      customType: 0
      isPPtrCurve: 0
    - serializedVersion: 2
      path: 2762825671
      attribute: 2
      script: {fileID: 0}
      typeID: 4
      customType: 0
      isPPtrCurve: 0
    - serializedVersion: 2
      path: 3842495459
      attribute: 2
      script: {fileID: 0}
      typeID: 4
      customType: 0
      isPPtrCurve: 0
    - serializedVersion: 2
      path: 2964767411
      attribute: 2
      script: {fileID: 0}
      typeID: 4
      customType: 0
      isPPtrCurve: 0
    - serializedVersion: 2
      path: 1783951070
      attribute: 2
      script: {fileID: 0}
      typeID: 4
      customType: 0
      isPPtrCurve: 0
    - serializedVersion: 2
      path: 428592891
      attribute: 2
      script: {fileID: 0}
      typeID: 4
      customType: 0
      isPPtrCurve: 0
    - serializedVersion: 2
      path: 3758615536
      attribute: 2
      script: {fileID: 0}
      typeID: 4
      customType: 0
      isPPtrCurve: 0
    - serializedVersion: 2
      path: 3927231191
      attribute: 2
      script: {fileID: 0}
      typeID: 4
      customType: 0
      isPPtrCurve: 0
    - serializedVersion: 2
      path: 3465553914
      attribute: 2
      script: {fileID: 0}
      typeID: 4
      customType: 0
      isPPtrCurve: 0
    - serializedVersion: 2
      path: 2533415782
      attribute: 2
      script: {fileID: 0}
      typeID: 4
      customType: 0
      isPPtrCurve: 0
    - serializedVersion: 2
      path: 619543502
      attribute: 2
      script: {fileID: 0}
      typeID: 4
      customType: 0
      isPPtrCurve: 0
    - serializedVersion: 2
      path: 840710882
      attribute: 2
      script: {fileID: 0}
      typeID: 4
      customType: 0
      isPPtrCurve: 0
    - serializedVersion: 2
      path: 235506396
      attribute: 2
      script: {fileID: 0}
      typeID: 4
      customType: 0
      isPPtrCurve: 0
    - serializedVersion: 2
      path: 2895556260
      attribute: 2
      script: {fileID: 0}
      typeID: 4
      customType: 0
      isPPtrCurve: 0
    - serializedVersion: 2
      path: 3975748491
      attribute: 2
      script: {fileID: 0}
      typeID: 4
      customType: 0
      isPPtrCurve: 0
    - serializedVersion: 2
      path: 2031008330
      attribute: 2
      script: {fileID: 0}
      typeID: 4
      customType: 0
      isPPtrCurve: 0
    - serializedVersion: 2
      path: 1651449789
      attribute: 2
      script: {fileID: 0}
      typeID: 4
      customType: 0
      isPPtrCurve: 0
    - serializedVersion: 2
      path: 276104851
      attribute: 2
      script: {fileID: 0}
      typeID: 4
      customType: 0
      isPPtrCurve: 0
    - serializedVersion: 2
      path: 2797366333
      attribute: 3
      script: {fileID: 0}
      typeID: 4
      customType: 0
      isPPtrCurve: 0
    pptrCurveMapping: []
  m_AnimationClipSettings:
    serializedVersion: 2
    m_AdditiveReferencePoseClip: {fileID: 0}
    m_AdditiveReferencePoseTime: 0
    m_StartTime: 0
    m_StopTime: 0.70000005
    m_OrientationOffsetY: 0
    m_Level: 0
    m_CycleOffset: 0
    m_HasAdditiveReferencePose: 0
    m_LoopTime: 0
    m_LoopBlend: 0
    m_LoopBlendOrientation: 0
    m_LoopBlendPositionY: 0
    m_LoopBlendPositionXZ: 0
    m_KeepOriginalOrientation: 0
    m_KeepOriginalPositionY: 1
    m_KeepOriginalPositionXZ: 0
    m_HeightFromFeet: 0
    m_Mirror: 0
  m_EditorCurves: []
  m_EulerEditorCurves: []
  m_HasGenericRootTransform: 0
  m_HasMotionFloatCurves: 0
  m_GenerateMotionCurves: 0
  m_Events: []
